{
  "temp_path": "temp",
  "db": {
    "host": "localhost",
    "port": 3306,
    "username": "vk_bot",
    "password": "vk_bot",
    "database": "vk_bot"
  },
  "loggers": [
    {
      "type": "console",
      "level": "debug",
      "format": "simple"
    },
    {
      "type": "file",
      "level": "info",
      "format": "simple",
      "path": "log"
    }
  ],
  "groups": [
    {
      "group_id": 123456789,
      "token": "1ce885d045f249029bd75e227d78d4416ce91a7f37e41d49c89b8503d5b449909d431f428284f0e8cb4f8",
      "admin_chat_ids": [1234567890, 234567890],
      "important_chat_id": 2000000001,
      "spam_chat_id": 2000000002,
      "men_chat_id": 2000000003,
      "vkpay_chat_id": 2000000004,
      "from_email": "vk-bot@local.local (optional)",
      "crash_email": "admin@local.local (optional)",
      "is_test": false
    }
  ]
}